^C:\USERS\KUKU\DOCUMENTS\VISUAL STUDIO 2010\PROJECTS\LM_NTLM HASH GENERATOR\LM_NTLM HASH GENERATOR\STDAFX.CPP
/c /ZI /nologo /W3 /WX- /Od /Oy- /D WIN32 /D _DEBUG /D _WINDOWS /D _USRDLL /D LM_NTLMHASHGENERATOR_EXPORTS /D _WINDLL /D _UNICODE /D UNICODE /Gm /EHsc /RTC1 /MDd /GS /fp:precise /Zc:wchar_t /Zc:forScope /Yc"StdAfx.h" /Fp"Debug\LM_NTLM Hash Generator.pch" /Fo"Debug\\" /Fd"Debug\vc100.pdb" /Gd /TP /analyze- /errorReport:prompt C:\USERS\KUKU\DOCUMENTS\VISUAL STUDIO 2010\PROJECTS\LM_NTLM HASH GENERATOR\LM_NTLM HASH GENERATOR\STDAFX.CPP
^C:\USERS\KUKU\DOCUMENTS\VISUAL STUDIO 2010\PROJECTS\LM_NTLM HASH GENERATOR\LM_NTLM HASH GENERATOR\DLLMAIN.CPP
/c /ZI /nologo /W3 /WX- /Od /Oy- /D WIN32 /D _DEBUG /D _WINDOWS /D _USRDLL /D LM_NTLMHASHGENERATOR_EXPORTS /D _WINDLL /D _UNICODE /D UNICODE /Gm /EHsc /RTC1 /MDd /GS /fp:precise /Zc:wchar_t /Zc:forScope /Fo"Debug\\" /Fd"Debug\vc100.pdb" /Gd /TP /analyze- /errorReport:prompt C:\USERS\KUKU\DOCUMENTS\VISUAL STUDIO 2010\PROJECTS\LM_NTLM HASH GENERATOR\LM_NTLM HASH GENERATOR\DLLMAIN.CPP
^C:\USERS\KUKU\DOCUMENTS\VISUAL STUDIO 2010\PROJECTS\LM_NTLM HASH GENERATOR\LM_NTLM HASH GENERATOR\LM_NTLM HASH GENERATOR.CPP
/c /ZI /nologo /W3 /WX- /Od /Oy- /D WIN32 /D _DEBUG /D _WINDOWS /D _USRDLL /D LM_NTLMHASHGENERATOR_EXPORTS /D _WINDLL /D _UNICODE /D UNICODE /Gm /EHsc /RTC1 /MDd /GS /fp:precise /Zc:wchar_t /Zc:forScope /Yu"StdAfx.h" /Fp"Debug\LM_NTLM Hash Generator.pch" /Fo"Debug\\" /Fd"Debug\vc100.pdb" /Gd /TP /analyze- /errorReport:prompt C:\USERS\KUKU\DOCUMENTS\VISUAL STUDIO 2010\PROJECTS\LM_NTLM HASH GENERATOR\LM_NTLM HASH GENERATOR\LM_NTLM HASH GENERATOR.CPP
^C:\USERS\KUKU\DOCUMENTS\VISUAL STUDIO 2010\PROJECTS\LM_NTLM HASH GENERATOR\LM_NTLM HASH GENERATOR\HASHWORKS.CPP
/c /ZI /nologo /W3 /WX- /Od /Oy- /D WIN32 /D _DEBUG /D _WINDOWS /D _USRDLL /D LM_NTLMHASHGENERATOR_EXPORTS /D _WINDLL /D _UNICODE /D UNICODE /Gm /EHsc /RTC1 /MDd /GS /fp:precise /Zc:wchar_t /Zc:forScope /Yu"StdAfx.h" /Fp"Debug\LM_NTLM Hash Generator.pch" /Fo"Debug\\" /Fd"Debug\vc100.pdb" /Gd /TP /analyze- /errorReport:prompt C:\USERS\KUKU\DOCUMENTS\VISUAL STUDIO 2010\PROJECTS\LM_NTLM HASH GENERATOR\LM_NTLM HASH GENERATOR\HASHWORKS.CPP
^C:\USERS\KUKU\DOCUMENTS\VISUAL STUDIO 2010\PROJECTS\LM_NTLM HASH GENERATOR\LM_NTLM HASH GENERATOR\MD4.CPP
/c /ZI /nologo /W3 /WX- /Od /Oy- /D WIN32 /D _DEBUG /D _WINDOWS /D _USRDLL /D LM_NTLMHASHGENERATOR_EXPORTS /D _WINDLL /D _UNICODE /D UNICODE /Gm /EHsc /RTC1 /MDd /GS /fp:precise /Zc:wchar_t /Zc:forScope /Yu"StdAfx.h" /Fp"Debug\LM_NTLM Hash Generator.pch" /Fo"Debug\\" /Fd"Debug\vc100.pdb" /Gd /TP /analyze- /errorReport:prompt C:\USERS\KUKU\DOCUMENTS\VISUAL STUDIO 2010\PROJECTS\LM_NTLM HASH GENERATOR\LM_NTLM HASH GENERATOR\MD4.CPP
