^C:\USERS\KUKU\DOCUMENTS\VISUAL STUDIO 2010\PROJECTS\LM_NTLM HASH GENERATOR\LM_NTLM HASH GENERATOR\DEBUG\DLLMAIN.OBJ|C:\USERS\KUKU\DOCUMENTS\VISUAL STUDIO 2010\PROJECTS\LM_NTLM HASH GENERATOR\LM_NTLM HASH GENERATOR\DEBUG\LM_NTLM HASH GENERATOR.DLL.EMBED.MANIFEST.RES|C:\USERS\KUKU\DOCUMENTS\VISUAL STUDIO 2010\PROJECTS\LM_NTLM HASH GENERATOR\LM_NTLM HASH GENERATOR\DEBUG\LM_NTLM HASH GENERATOR.OBJ|C:\USERS\KUKU\DOCUMENTS\VISUAL STUDIO 2010\PROJECTS\LM_NTLM HASH GENERATOR\LM_NTLM HASH GENERATOR\DEBUG\STDAFX.OBJ
C:\WINDOWS\GLOBALIZATION\SORTING\SORTDEFAULT.NLS
F:\PROGRAM FILES\OPENSSL\LIBEAY32.LIB
F:\PROGRAM FILES\OPENSSL\SSLEAY32.LIB
C:\PROGRAM FILES (X86)\MICROSOFT SDKS\WINDOWS\V7.0A\LIB\KERNEL32.LIB
C:\PROGRAM FILES (X86)\MICROSOFT SDKS\WINDOWS\V7.0A\LIB\USER32.LIB
C:\PROGRAM FILES (X86)\MICROSOFT SDKS\WINDOWS\V7.0A\LIB\GDI32.LIB
C:\PROGRAM FILES (X86)\MICROSOFT SDKS\WINDOWS\V7.0A\LIB\WINSPOOL.LIB
C:\PROGRAM FILES (X86)\MICROSOFT SDKS\WINDOWS\V7.0A\LIB\COMDLG32.LIB
C:\PROGRAM FILES (X86)\MICROSOFT SDKS\WINDOWS\V7.0A\LIB\ADVAPI32.LIB
C:\PROGRAM FILES (X86)\MICROSOFT SDKS\WINDOWS\V7.0A\LIB\SHELL32.LIB
C:\PROGRAM FILES (X86)\MICROSOFT SDKS\WINDOWS\V7.0A\LIB\OLE32.LIB
C:\PROGRAM FILES (X86)\MICROSOFT SDKS\WINDOWS\V7.0A\LIB\OLEAUT32.LIB
C:\PROGRAM FILES (X86)\MICROSOFT SDKS\WINDOWS\V7.0A\LIB\UUID.LIB
C:\PROGRAM FILES (X86)\MICROSOFT SDKS\WINDOWS\V7.0A\LIB\ODBC32.LIB
C:\PROGRAM FILES (X86)\MICROSOFT SDKS\WINDOWS\V7.0A\LIB\ODBCCP32.LIB
C:\USERS\KUKU\DOCUMENTS\VISUAL STUDIO 2010\PROJECTS\LM_NTLM HASH GENERATOR\LM_NTLM HASH GENERATOR\DEBUG\LM_NTLM HASH GENERATOR.DLL.EMBED.MANIFEST.RES
C:\USERS\KUKU\DOCUMENTS\VISUAL STUDIO 2010\PROJECTS\LM_NTLM HASH GENERATOR\LM_NTLM HASH GENERATOR\DEBUG\DLLMAIN.OBJ
C:\USERS\KUKU\DOCUMENTS\VISUAL STUDIO 2010\PROJECTS\LM_NTLM HASH GENERATOR\LM_NTLM HASH GENERATOR\DEBUG\LM_NTLM HASH GENERATOR.OBJ
C:\USERS\KUKU\DOCUMENTS\VISUAL STUDIO 2010\PROJECTS\LM_NTLM HASH GENERATOR\LM_NTLM HASH GENERATOR\DEBUG\STDAFX.OBJ
C:\WINDOWS\SYSTEM32\TZRES.DLL
C:\USERS\KUKU\DOCUMENTS\VISUAL STUDIO 2010\PROJECTS\LM_NTLM HASH GENERATOR\DEBUG\LM_NTLM HASH GENERATOR.DLL
C:\USERS\KUKU\DOCUMENTS\VISUAL STUDIO 2010\PROJECTS\LM_NTLM HASH GENERATOR\DEBUG\LM_NTLM HASH GENERATOR.PDB
C:\USERS\KUKU\DOCUMENTS\VISUAL STUDIO 2010\PROJECTS\LM_NTLM HASH GENERATOR\DEBUG\LM_NTLM HASH GENERATOR.EXP
C:\USERS\KUKU\DOCUMENTS\VISUAL STUDIO 2010\PROJECTS\LM_NTLM HASH GENERATOR\DEBUG\LM_NTLM HASH GENERATOR.LIB
C:\PROGRAM FILES (X86)\MICROSOFT VISUAL STUDIO 10.0\VC\LIB\MSVCRTD.LIB
C:\PROGRAM FILES (X86)\MICROSOFT VISUAL STUDIO 10.0\VC\LIB\OLDNAMES.LIB
C:\PROGRAM FILES (X86)\MICROSOFT VISUAL STUDIO 10.0\VC\LIB\MSVCPRTD.LIB
